{
    "classifiers": {
        "0": "Sequential",
        "1": "LogisticRegression",
        "2": "Sequential",
        "3": "LogisticRegression",
        "4": "RandomForestClassifier",
        "5": "SVC",
        "6": "RandomForestClassifier",
        "7": "SVC",
        "8": "LogisticRegression",
        "9": "Sequential",
        "10": "RandomForestClassifier",
        "11": "SVC",
        "12": "Sequential",
        "13": "LogisticRegression",
        "14": "RandomForestClassifier",
        "15": "SVC",
        "16": "Sequential",
        "17": "SVC",
        "18": "LogisticRegression",
        "19": "RandomForestClassifier",
        "20": "Sequential",
        "21": "LogisticRegression",
        "22": "SVC",
        "23": "RandomForestClassifier",
        "24": "SVC",
        "25": "RandomForestClassifier",
        "26": "RandomForestClassifier",
        "27": "LogisticRegression",
        "28": "Sequential",
        "29": "SVC",
        "30": "LogisticRegression",
        "31": "Sequential",
        "32": "RandomForestClassifier",
        "33": "LogisticRegression",
        "34": "Sequential",
        "35": "SVC",
        "36": "SVC",
        "37": "LogisticRegression",
        "38": "RandomForestClassifier",
        "39": "RandomForestClassifier",
        "40": "Sequential",
        "41": "SVC",
        "42": "LogisticRegression",
        "43": "Sequential",
        "44": "Sequential",
        "45": "SVC",
        "46": "LogisticRegression",
        "47": "RandomForestClassifier",
        "48": "Sequential",
        "49": "LogisticRegression",
        "50": "SVC",
        "51": "RandomForestClassifier",
        "52": "SVC",
        "53": "RandomForestClassifier",
        "54": "Sequential",
        "55": "LogisticRegression",
        "56": "RandomForestClassifier",
        "57": "SVC",
        "58": "LogisticRegression",
        "59": "Sequential",
        "60": "RandomForestClassifier",
        "61": "Sequential",
        "62": "LogisticRegression",
        "63": "SVC",
        "64": "SVC",
        "65": "Sequential",
        "66": "RandomForestClassifier",
        "67": "LogisticRegression",
        "68": "RandomForestClassifier",
        "69": "Sequential",
        "70": "LogisticRegression",
        "71": "SVC",
        "72": "RandomForestClassifier",
        "73": "SVC",
        "74": "LogisticRegression",
        "75": "Sequential",
        "76": "LogisticRegression",
        "77": "Sequential",
        "78": "RandomForestClassifier",
        "79": "SVC",
        "80": "RandomForestClassifier",
        "81": "LogisticRegression",
        "82": "SVC",
        "83": "Sequential",
        "84": "LogisticRegression",
        "85": "SVC",
        "86": "Sequential",
        "87": "RandomForestClassifier",
        "88": "RandomForestClassifier",
        "89": "LogisticRegression",
        "90": "SVC",
        "91": "Sequential",
        "92": "Sequential",
        "93": "LogisticRegression",
        "94": "RandomForestClassifier",
        "95": "SVC"
    },
    "dataset": {
        "0": "dna_100_1",
        "1": "dna_100_1",
        "2": "dna_100_1",
        "3": "dna_100_1",
        "4": "dna_100_1",
        "5": "dna_100_1",
        "6": "dna_100_1",
        "7": "dna_100_1",
        "8": "dna_100_03",
        "9": "dna_100_03",
        "10": "dna_100_03",
        "11": "dna_100_03",
        "12": "dna_100_13",
        "13": "dna_100_13",
        "14": "dna_100_13",
        "15": "dna_100_13",
        "16": "protein_150_1",
        "17": "protein_150_1",
        "18": "protein_150_1",
        "19": "protein_150_1",
        "20": "protein_150_0",
        "21": "protein_150_0",
        "22": "protein_150_0",
        "23": "protein_150_0",
        "24": "dna_200_1",
        "25": "dna_200_1",
        "26": "dna_200_1",
        "27": "dna_200_1",
        "28": "dna_200_1",
        "29": "dna_200_1",
        "30": "dna_200_1",
        "31": "dna_200_1",
        "32": "dna_200_13",
        "33": "dna_200_13",
        "34": "dna_200_13",
        "35": "dna_200_13",
        "36": "dna_50_1",
        "37": "dna_50_1",
        "38": "dna_50_1",
        "39": "dna_50_1",
        "40": "dna_50_1",
        "41": "dna_50_1",
        "42": "dna_50_1",
        "43": "dna_50_1",
        "44": "protein_200_1",
        "45": "protein_200_1",
        "46": "protein_200_1",
        "47": "protein_200_1",
        "48": "protein_200_0",
        "49": "protein_200_0",
        "50": "protein_200_0",
        "51": "protein_200_0",
        "52": "dna_50_03",
        "53": "dna_50_03",
        "54": "dna_50_03",
        "55": "dna_50_03",
        "56": "dna_50_13",
        "57": "dna_50_13",
        "58": "dna_50_13",
        "59": "dna_50_13",
        "60": "protein_50_0",
        "61": "protein_50_0",
        "62": "protein_50_0",
        "63": "protein_50_0",
        "64": "protein_50_1",
        "65": "protein_50_1",
        "66": "protein_50_1",
        "67": "protein_50_1",
        "68": "dna_200_03",
        "69": "dna_200_03",
        "70": "dna_200_03",
        "71": "dna_200_03",
        "72": "protein_100_1",
        "73": "protein_100_1",
        "74": "protein_100_1",
        "75": "protein_100_1",
        "76": "dna_150_13",
        "77": "dna_150_13",
        "78": "dna_150_13",
        "79": "dna_150_13",
        "80": "protein_100_0",
        "81": "protein_100_0",
        "82": "protein_100_0",
        "83": "protein_100_0",
        "84": "dna_150_1",
        "85": "dna_150_1",
        "86": "dna_150_1",
        "87": "dna_150_1",
        "88": "dna_150_1",
        "89": "dna_150_1",
        "90": "dna_150_1",
        "91": "dna_150_1",
        "92": "dna_150_03",
        "93": "dna_150_03",
        "94": "dna_150_03",
        "95": "dna_150_03"
    },
    "fpr": {
        "0": [
            0.0,
            0.7453815261044177,
            1.0
        ],
        "1": [
            0.0,
            0.28112449799196787,
            1.0
        ],
        "2": [
            0.0,
            0.2755020080321285,
            1.0
        ],
        "3": [
            0.0,
            0.5373493975903615,
            1.0
        ],
        "4": [
            0.0,
            0.16224899598393575,
            1.0
        ],
        "5": [
            0.0,
            0.5373493975903615,
            1.0
        ],
        "6": [
            0.0,
            0.3389558232931727,
            1.0
        ],
        "7": [
            0.0,
            0.22329317269076304,
            1.0
        ],
        "8": [
            0.0,
            0.37104430379746833,
            1.0
        ],
        "9": [
            0.0,
            0.40031645569620256,
            1.0
        ],
        "10": [
            0.0,
            0.37895569620253167,
            1.0
        ],
        "11": [
            0.0,
            0.25158227848101267,
            1.0
        ],
        "12": [
            0.0,
            0.2555379746835443,
            1.0
        ],
        "13": [
            0.0,
            0.24604430379746836,
            1.0
        ],
        "14": [
            0.0,
            0.2286392405063291,
            1.0
        ],
        "15": [
            0.0,
            0.1906645569620253,
            1.0
        ],
        "16": [
            0.0,
            0.23974763406940064,
            1.0
        ],
        "17": [
            0.0,
            0.1695583596214511,
            1.0
        ],
        "18": [
            0.0,
            0.27365930599369087,
            1.0
        ],
        "19": [
            0.0,
            0.24526813880126183,
            1.0
        ],
        "20": [
            0.0,
            0.33410852713178296,
            1.0
        ],
        "21": [
            0.0,
            0.30310077519379847,
            1.0
        ],
        "22": [
            0.0,
            0.22325581395348837,
            1.0
        ],
        "23": [
            0.0,
            0.3891472868217054,
            1.0
        ],
        "24": [
            0.0,
            0.22650602409638554,
            1.0
        ],
        "25": [
            0.0,
            0.39839357429718875,
            1.0
        ],
        "26": [
            0.0,
            0.04738955823293173,
            1.0
        ],
        "27": [
            0.0,
            0.5285140562248996,
            1.0
        ],
        "28": [
            0.0,
            0.5413654618473895,
            1.0
        ],
        "29": [
            0.0,
            0.6120481927710844,
            1.0
        ],
        "30": [
            0.0,
            0.22971887550200804,
            1.0
        ],
        "31": [
            0.0,
            0.26345381526104417,
            1.0
        ],
        "32": [
            0.0,
            0.24050632911392406,
            1.0
        ],
        "33": [
            0.0,
            0.2879746835443038,
            1.0
        ],
        "34": [
            0.0,
            0.2697784810126582,
            1.0
        ],
        "35": [
            0.0,
            0.19936708860759494,
            1.0
        ],
        "36": [
            0.0,
            0.22008032128514057,
            1.0
        ],
        "37": [
            0.0,
            0.29477911646586347,
            1.0
        ],
        "38": [
            0.0,
            0.3100401606425703,
            1.0
        ],
        "39": [
            0.0,
            0.39357429718875503,
            1.0
        ],
        "40": [
            0.0,
            0.2570281124497992,
            1.0
        ],
        "41": [
            0.0,
            0.5365461847389559,
            1.0
        ],
        "42": [
            0.0,
            0.5951807228915663,
            1.0
        ],
        "43": [
            0.0,
            0.7879518072289157,
            1.0
        ],
        "44": [
            0.0,
            0.23186119873817035,
            1.0
        ],
        "45": [
            0.0,
            0.16798107255520506,
            1.0
        ],
        "46": [
            0.0,
            0.2476340694006309,
            1.0
        ],
        "47": [
            0.0,
            0.25157728706624605,
            1.0
        ],
        "48": [
            0.0,
            0.27829457364341087,
            1.0
        ],
        "49": [
            0.0,
            0.27906976744186046,
            1.0
        ],
        "50": [
            0.0,
            0.2302325581395349,
            1.0
        ],
        "51": [
            0.0,
            0.5395348837209303,
            1.0
        ],
        "52": [
            0.0,
            0.22468354430379747,
            1.0
        ],
        "53": [
            0.0,
            0.3125,
            1.0
        ],
        "54": [
            0.0,
            0.3069620253164557,
            1.0
        ],
        "55": [
            0.0,
            0.3180379746835443,
            1.0
        ],
        "56": [
            0.0,
            0.22151898734177214,
            1.0
        ],
        "57": [
            0.0,
            0.18829113924050633,
            1.0
        ],
        "58": [
            0.0,
            0.22468354430379747,
            1.0
        ],
        "59": [
            0.0,
            0.2650316455696203,
            1.0
        ],
        "60": [
            0.0,
            0.30930232558139537,
            1.0
        ],
        "61": [
            0.0,
            0.29457364341085274,
            1.0
        ],
        "62": [
            0.0,
            0.29534883720930233,
            1.0
        ],
        "63": [
            0.0,
            0.2069767441860465,
            1.0
        ],
        "64": [
            0.0,
            0.16009463722397477,
            1.0
        ],
        "65": [
            0.0,
            0.22318611987381703,
            1.0
        ],
        "66": [
            0.0,
            0.2058359621451104,
            1.0
        ],
        "67": [
            0.0,
            0.22318611987381703,
            1.0
        ],
        "68": [
            0.0,
            0.6194620253164557,
            1.0
        ],
        "69": [
            0.0,
            0.44145569620253167,
            1.0
        ],
        "70": [
            0.0,
            0.33306962025316456,
            1.0
        ],
        "71": [
            0.0,
            0.2800632911392405,
            1.0
        ],
        "72": [
            0.0,
            0.2279179810725552,
            1.0
        ],
        "73": [
            0.0,
            0.1632492113564669,
            1.0
        ],
        "74": [
            0.0,
            0.25157728706624605,
            1.0
        ],
        "75": [
            0.0,
            0.20977917981072555,
            1.0
        ],
        "76": [
            0.0,
            0.2737341772151899,
            1.0
        ],
        "77": [
            0.0,
            0.25,
            1.0
        ],
        "78": [
            0.0,
            0.24920886075949367,
            1.0
        ],
        "79": [
            0.0,
            0.19778481012658228,
            1.0
        ],
        "80": [
            0.0,
            0.324031007751938,
            1.0
        ],
        "81": [
            0.0,
            0.31627906976744186,
            1.0
        ],
        "82": [
            0.0,
            0.22093023255813954,
            1.0
        ],
        "83": [
            0.0,
            0.29844961240310075,
            1.0
        ],
        "84": [
            0.0,
            0.6224899598393574,
            1.0
        ],
        "85": [
            0.0,
            0.21847389558232932,
            1.0
        ],
        "86": [
            0.0,
            0.6305220883534136,
            1.0
        ],
        "87": [
            0.0,
            0.3421686746987952,
            1.0
        ],
        "88": [
            0.0,
            0.08674698795180723,
            1.0
        ],
        "89": [
            0.0,
            0.24417670682730924,
            1.0
        ],
        "90": [
            0.0,
            0.5606425702811245,
            1.0
        ],
        "91": [
            0.0,
            0.2891566265060241,
            1.0
        ],
        "92": [
            0.0,
            0.3504746835443038,
            1.0
        ],
        "93": [
            0.0,
            0.3314873417721519,
            1.0
        ],
        "94": [
            0.0,
            0.46360759493670883,
            1.0
        ],
        "95": [
            0.0,
            0.25,
            1.0
        ]
    },
    "tpr": {
        "0": [
            0.0,
            0.7076566125290024,
            1.0
        ],
        "1": [
            0.0,
            0.6643464810518175,
            1.0
        ],
        "2": [
            0.0,
            0.7045630317092034,
            1.0
        ],
        "3": [
            0.0,
            0.505800464037123,
            1.0
        ],
        "4": [
            0.0,
            0.25986078886310904,
            1.0
        ],
        "5": [
            0.0,
            0.6666666666666666,
            1.0
        ],
        "6": [
            0.0,
            0.7331786542923434,
            1.0
        ],
        "7": [
            0.0,
            0.6860015467904099,
            1.0
        ],
        "8": [
            0.0,
            0.59592795614722,
            1.0
        ],
        "9": [
            0.0,
            0.6867658574784652,
            1.0
        ],
        "10": [
            0.0,
            0.7000783085356304,
            1.0
        ],
        "11": [
            0.0,
            0.6084573218480814,
            1.0
        ],
        "12": [
            0.0,
            0.7478465152701644,
            1.0
        ],
        "13": [
            0.0,
            0.7071260767423649,
            1.0
        ],
        "14": [
            0.0,
            0.7086922474549726,
            1.0
        ],
        "15": [
            0.0,
            0.7689898198903681,
            1.0
        ],
        "16": [
            0.0,
            0.7609351432880844,
            1.0
        ],
        "17": [
            0.0,
            0.7428355957767723,
            1.0
        ],
        "18": [
            0.0,
            0.696078431372549,
            1.0
        ],
        "19": [
            0.0,
            0.7345399698340875,
            1.0
        ],
        "20": [
            0.0,
            0.7223926380368099,
            1.0
        ],
        "21": [
            0.0,
            0.6357361963190185,
            1.0
        ],
        "22": [
            0.0,
            0.6526073619631901,
            1.0
        ],
        "23": [
            0.0,
            0.7461656441717791,
            1.0
        ],
        "24": [
            0.0,
            0.6705336426914154,
            1.0
        ],
        "25": [
            0.0,
            0.7633410672853829,
            1.0
        ],
        "26": [
            0.0,
            0.08197989172467131,
            1.0
        ],
        "27": [
            0.0,
            0.4733178654292343,
            1.0
        ],
        "28": [
            0.0,
            0.5390564578499614,
            1.0
        ],
        "29": [
            0.0,
            0.7648878576952823,
            1.0
        ],
        "30": [
            0.0,
            0.6844547563805105,
            1.0
        ],
        "31": [
            0.0,
            0.7037896365042536,
            1.0
        ],
        "32": [
            0.0,
            0.7149569303054033,
            1.0
        ],
        "33": [
            0.0,
            0.6961628817541112,
            1.0
        ],
        "34": [
            0.0,
            0.7509788566953798,
            1.0
        ],
        "35": [
            0.0,
            0.7517619420516837,
            1.0
        ],
        "36": [
            0.0,
            0.691415313225058,
            1.0
        ],
        "37": [
            0.0,
            0.6589327146171694,
            1.0
        ],
        "38": [
            0.0,
            0.7037896365042536,
            1.0
        ],
        "39": [
            0.0,
            0.4957463263727765,
            1.0
        ],
        "40": [
            0.0,
            0.7068832173240526,
            1.0
        ],
        "41": [
            0.0,
            0.6310904872389791,
            1.0
        ],
        "42": [
            0.0,
            0.5622583139984532,
            1.0
        ],
        "43": [
            0.0,
            0.7803557617942769,
            1.0
        ],
        "44": [
            0.0,
            0.746606334841629,
            1.0
        ],
        "45": [
            0.0,
            0.7435897435897436,
            1.0
        ],
        "46": [
            0.0,
            0.6900452488687783,
            1.0
        ],
        "47": [
            0.0,
            0.746606334841629,
            1.0
        ],
        "48": [
            0.0,
            0.6434049079754601,
            1.0
        ],
        "49": [
            0.0,
            0.6403374233128835,
            1.0
        ],
        "50": [
            0.0,
            0.6242331288343558,
            1.0
        ],
        "51": [
            0.0,
            0.8496932515337423,
            1.0
        ],
        "52": [
            0.0,
            0.6217697729052467,
            1.0
        ],
        "53": [
            0.0,
            0.6711041503523885,
            1.0
        ],
        "54": [
            0.0,
            0.6076742364917777,
            1.0
        ],
        "55": [
            0.0,
            0.6170712607674237,
            1.0
        ],
        "56": [
            0.0,
            0.716523101018011,
            1.0
        ],
        "57": [
            0.0,
            0.7611589663273297,
            1.0
        ],
        "58": [
            0.0,
            0.7415818324197337,
            1.0
        ],
        "59": [
            0.0,
            0.7838684416601409,
            1.0
        ],
        "60": [
            0.0,
            0.7484662576687117,
            1.0
        ],
        "61": [
            0.0,
            0.7070552147239264,
            1.0
        ],
        "62": [
            0.0,
            0.6549079754601227,
            1.0
        ],
        "63": [
            0.0,
            0.6978527607361963,
            1.0
        ],
        "64": [
            0.0,
            0.7413273001508296,
            1.0
        ],
        "65": [
            0.0,
            0.7383107088989442,
            1.0
        ],
        "66": [
            0.0,
            0.7209653092006033,
            1.0
        ],
        "67": [
            0.0,
            0.7058823529411765,
            1.0
        ],
        "68": [
            0.0,
            0.8206734534064213,
            1.0
        ],
        "69": [
            0.0,
            0.6546593578700078,
            1.0
        ],
        "70": [
            0.0,
            0.5794831636648394,
            1.0
        ],
        "71": [
            0.0,
            0.5309318715740016,
            1.0
        ],
        "72": [
            0.0,
            0.7322775263951734,
            1.0
        ],
        "73": [
            0.0,
            0.744343891402715,
            1.0
        ],
        "74": [
            0.0,
            0.7013574660633484,
            1.0
        ],
        "75": [
            0.0,
            0.7503770739064857,
            1.0
        ],
        "76": [
            0.0,
            0.7032106499608457,
            1.0
        ],
        "77": [
            0.0,
            0.745497259201253,
            1.0
        ],
        "78": [
            0.0,
            0.7141738449490994,
            1.0
        ],
        "79": [
            0.0,
            0.7572435395458105,
            1.0
        ],
        "80": [
            0.0,
            0.7599693251533742,
            1.0
        ],
        "81": [
            0.0,
            0.63420245398773,
            1.0
        ],
        "82": [
            0.0,
            0.661042944785276,
            1.0
        ],
        "83": [
            0.0,
            0.6710122699386503,
            1.0
        ],
        "84": [
            0.0,
            0.5754060324825986,
            1.0
        ],
        "85": [
            0.0,
            0.6774941995359629,
            1.0
        ],
        "86": [
            0.0,
            0.5901005413766435,
            1.0
        ],
        "87": [
            0.0,
            0.7393658159319412,
            1.0
        ],
        "88": [
            0.0,
            0.14694508894044858,
            1.0
        ],
        "89": [
            0.0,
            0.6620262954369683,
            1.0
        ],
        "90": [
            0.0,
            0.711523588553751,
            1.0
        ],
        "91": [
            0.0,
            0.7262180974477959,
            1.0
        ],
        "92": [
            0.0,
            0.6209866875489428,
            1.0
        ],
        "93": [
            0.0,
            0.5951448707909162,
            1.0
        ],
        "94": [
            0.0,
            0.6985121378230227,
            1.0
        ],
        "95": [
            0.0,
            0.5732184808144087,
            1.0
        ]
    },
    "se": {
        "0": 0.25461847389558234,
        "1": 0.7188755020080321,
        "2": 0.7244979919678715,
        "3": 0.46265060240963857,
        "4": 0.8377510040160643,
        "5": 0.46265060240963857,
        "6": 0.6610441767068274,
        "7": 0.7767068273092369,
        "8": 0.6289556962025317,
        "9": 0.5996835443037974,
        "10": 0.6210443037974683,
        "11": 0.7484177215189873,
        "12": 0.7444620253164557,
        "13": 0.7539556962025317,
        "14": 0.7713607594936709,
        "15": 0.8093354430379747,
        "16": 0.7602523659305994,
        "17": 0.830441640378549,
        "18": 0.7263406940063092,
        "19": 0.7547318611987381,
        "20": 0.665891472868217,
        "21": 0.6968992248062016,
        "22": 0.7767441860465116,
        "23": 0.6108527131782946,
        "24": 0.7734939759036145,
        "25": 0.6016064257028112,
        "26": 0.9526104417670683,
        "27": 0.4714859437751004,
        "28": 0.45863453815261046,
        "29": 0.38795180722891565,
        "30": 0.770281124497992,
        "31": 0.7365461847389558,
        "32": 0.759493670886076,
        "33": 0.7120253164556962,
        "34": 0.7302215189873418,
        "35": 0.8006329113924051,
        "36": 0.7799196787148595,
        "37": 0.7052208835341366,
        "38": 0.6899598393574298,
        "39": 0.606425702811245,
        "40": 0.7429718875502008,
        "41": 0.4634538152610442,
        "42": 0.40481927710843374,
        "43": 0.21204819277108433,
        "44": 0.7681388012618297,
        "45": 0.832018927444795,
        "46": 0.7523659305993691,
        "47": 0.748422712933754,
        "48": 0.7217054263565892,
        "49": 0.7209302325581395,
        "50": 0.7697674418604651,
        "51": 0.4604651162790698,
        "52": 0.7753164556962026,
        "53": 0.6875,
        "54": 0.6930379746835443,
        "55": 0.6819620253164557,
        "56": 0.7784810126582279,
        "57": 0.8117088607594937,
        "58": 0.7753164556962026,
        "59": 0.7349683544303798,
        "60": 0.6906976744186046,
        "61": 0.7054263565891473,
        "62": 0.7046511627906977,
        "63": 0.7930232558139535,
        "64": 0.8399053627760252,
        "65": 0.776813880126183,
        "66": 0.7941640378548895,
        "67": 0.776813880126183,
        "68": 0.3805379746835443,
        "69": 0.5585443037974683,
        "70": 0.6669303797468354,
        "71": 0.7199367088607594,
        "72": 0.7720820189274448,
        "73": 0.8367507886435331,
        "74": 0.748422712933754,
        "75": 0.7902208201892744,
        "76": 0.7262658227848101,
        "77": 0.75,
        "78": 0.7507911392405063,
        "79": 0.8022151898734177,
        "80": 0.6759689922480621,
        "81": 0.6837209302325581,
        "82": 0.7790697674418605,
        "83": 0.7015503875968992,
        "84": 0.37751004016064255,
        "85": 0.7815261044176707,
        "86": 0.36947791164658633,
        "87": 0.6578313253012048,
        "88": 0.9132530120481928,
        "89": 0.7558232931726908,
        "90": 0.4393574297188755,
        "91": 0.7108433734939759,
        "92": 0.6495253164556962,
        "93": 0.6685126582278481,
        "94": 0.5363924050632911,
        "95": 0.75
    },
    "sp": {
        "0": 0.7076566125290024,
        "1": 0.6643464810518175,
        "2": 0.7045630317092034,
        "3": 0.505800464037123,
        "4": 0.25986078886310904,
        "5": 0.6666666666666666,
        "6": 0.7331786542923434,
        "7": 0.6860015467904099,
        "8": 0.59592795614722,
        "9": 0.6867658574784652,
        "10": 0.7000783085356304,
        "11": 0.6084573218480814,
        "12": 0.7478465152701644,
        "13": 0.7071260767423649,
        "14": 0.7086922474549726,
        "15": 0.7689898198903681,
        "16": 0.7609351432880844,
        "17": 0.7428355957767723,
        "18": 0.696078431372549,
        "19": 0.7345399698340875,
        "20": 0.7223926380368099,
        "21": 0.6357361963190185,
        "22": 0.6526073619631901,
        "23": 0.7461656441717791,
        "24": 0.6705336426914154,
        "25": 0.7633410672853829,
        "26": 0.08197989172467131,
        "27": 0.4733178654292343,
        "28": 0.5390564578499614,
        "29": 0.7648878576952823,
        "30": 0.6844547563805105,
        "31": 0.7037896365042536,
        "32": 0.7149569303054033,
        "33": 0.6961628817541112,
        "34": 0.7509788566953798,
        "35": 0.7517619420516837,
        "36": 0.691415313225058,
        "37": 0.6589327146171694,
        "38": 0.7037896365042536,
        "39": 0.4957463263727765,
        "40": 0.7068832173240526,
        "41": 0.6310904872389791,
        "42": 0.5622583139984532,
        "43": 0.7803557617942769,
        "44": 0.746606334841629,
        "45": 0.7435897435897436,
        "46": 0.6900452488687783,
        "47": 0.746606334841629,
        "48": 0.6434049079754601,
        "49": 0.6403374233128835,
        "50": 0.6242331288343558,
        "51": 0.8496932515337423,
        "52": 0.6217697729052467,
        "53": 0.6711041503523885,
        "54": 0.6076742364917777,
        "55": 0.6170712607674237,
        "56": 0.716523101018011,
        "57": 0.7611589663273297,
        "58": 0.7415818324197337,
        "59": 0.7838684416601409,
        "60": 0.7484662576687117,
        "61": 0.7070552147239264,
        "62": 0.6549079754601227,
        "63": 0.6978527607361963,
        "64": 0.7413273001508296,
        "65": 0.7383107088989442,
        "66": 0.7209653092006033,
        "67": 0.7058823529411765,
        "68": 0.8206734534064213,
        "69": 0.6546593578700078,
        "70": 0.5794831636648394,
        "71": 0.5309318715740016,
        "72": 0.7322775263951734,
        "73": 0.744343891402715,
        "74": 0.7013574660633484,
        "75": 0.7503770739064857,
        "76": 0.7032106499608457,
        "77": 0.745497259201253,
        "78": 0.7141738449490994,
        "79": 0.7572435395458105,
        "80": 0.7599693251533742,
        "81": 0.63420245398773,
        "82": 0.661042944785276,
        "83": 0.6710122699386503,
        "84": 0.5754060324825986,
        "85": 0.6774941995359629,
        "86": 0.5901005413766435,
        "87": 0.7393658159319412,
        "88": 0.14694508894044858,
        "89": 0.6620262954369683,
        "90": 0.711523588553751,
        "91": 0.7262180974477959,
        "92": 0.6209866875489428,
        "93": 0.5951448707909162,
        "94": 0.6985121378230227,
        "95": 0.5732184808144087
    },
    "acc": {
        "0": 0.4854215918045705,
        "1": 0.6910953506698188,
        "2": 0.7143420015760441,
        "3": 0.4846335697399527,
        "4": 0.5433412135539795,
        "5": 0.5665878644602049,
        "6": 0.6977935382190701,
        "7": 0.7304964539007093,
        "8": 0.6123573396300669,
        "9": 0.6434474616292798,
        "10": 0.6607634789452971,
        "11": 0.6780794962613145,
        "12": 0.7461629279811098,
        "13": 0.7304210940574577,
        "14": 0.7398661944116489,
        "15": 0.7890594254230617,
        "16": 0.7606013878180417,
        "17": 0.7856592135697764,
        "18": 0.7108712413261372,
        "19": 0.7444101773323053,
        "20": 0.6942945258288358,
        "21": 0.6661526599845798,
        "22": 0.7143407864302236,
        "23": 0.6788743253662297,
        "24": 0.7210401891252955,
        "25": 0.6840031520882585,
        "26": 0.5090622537431048,
        "27": 0.4724192277383767,
        "28": 0.4996059889676911,
        "29": 0.5799842395587076,
        "30": 0.7265563435776202,
        "31": 0.7198581560283688,
        "32": 0.7371113734750099,
        "33": 0.7040535222353405,
        "34": 0.7406532861078315,
        "35": 0.7760724124360489,
        "36": 0.7348305752561072,
        "37": 0.681639085894405,
        "38": 0.6970055161544523,
        "39": 0.5500394011032309,
        "40": 0.7245862884160756,
        "41": 0.5488573680063041,
        "42": 0.4850275807722616,
        "43": 0.5015760441292356,
        "44": 0.7571318427139553,
        "45": 0.7868157286044719,
        "46": 0.720508866615266,
        "47": 0.7474942174248265,
        "48": 0.6823438704703161,
        "49": 0.6804163454124904,
        "50": 0.6966075558982266,
        "51": 0.6561295296838859,
        "52": 0.6981503345139709,
        "53": 0.6792601338055884,
        "54": 0.650137741046832,
        "55": 0.6493506493506493,
        "56": 0.7473435655253837,
        "57": 0.7863046044864227,
        "58": 0.7583628492719402,
        "59": 0.7595434868162141,
        "60": 0.7197378565921357,
        "61": 0.7062451811873555,
        "62": 0.6796453353893601,
        "63": 0.7451811873554356,
        "64": 0.7895142636854279,
        "65": 0.7571318427139553,
        "66": 0.7567463377023901,
        "67": 0.7405551272166538,
        "68": 0.6017316017316018,
        "69": 0.6068476977567887,
        "70": 0.6229830775285321,
        "71": 0.6249508067689886,
        "72": 0.7517347725520431,
        "73": 0.7895142636854279,
        "74": 0.7243639167309175,
        "75": 0.7698535080956053,
        "76": 0.7146792601338056,
        "77": 0.747737111373475,
        "78": 0.7323888232979142,
        "79": 0.7796143250688705,
        "80": 0.718195836545875,
        "81": 0.6588280647648419,
        "82": 0.7197378565921357,
        "83": 0.6861989205859677,
        "84": 0.47832939322301027,
        "85": 0.7285263987391647,
        "86": 0.48187549251379036,
        "87": 0.6993695823483057,
        "88": 0.5228526398739165,
        "89": 0.7080378250591016,
        "90": 0.5780141843971631,
        "91": 0.7186761229314421,
        "92": 0.6351829988193625,
        "93": 0.6316410861865407,
        "94": 0.6178669815033452,
        "95": 0.6611570247933884
    },
    "mcc": {
        "0": -0.025484274227559476,
        "1": 0.3946330594785052,
        "2": 0.4259816383396796,
        "3": -0.029688905724702876,
        "4": 0.22588602627243637,
        "5": 0.10516002612671456,
        "6": 0.35825359459413686,
        "7": 0.49448233970305605,
        "8": 0.23109994843096435,
        "9": 0.26180191167952277,
        "10": 0.29562926583323873,
        "11": 0.41195438795979444,
        "12": 0.4869154892812894,
        "13": 0.48007196128694335,
        "14": 0.5081968180762859,
        "15": 0.5977131090281482,
        "16": 0.5033250279431006,
        "17": 0.6057629462041226,
        "18": 0.4217538984097576,
        "19": 0.4827989741242202,
        "20": 0.3648117283812707,
        "21": 0.3517210600422408,
        "22": 0.48627172689421894,
        "23": 0.31223978371633565,
        "24": 0.48112653189800875,
        "25": 0.30637871124093163,
        "26": 0.26099978907403504,
        "27": -0.05410965160677421,
        "28": -0.0020967979407718043,
        "29": 0.108672405956954,
        "30": 0.4834723925651029,
        "31": 0.4428256037542777,
        "32": 0.49277367288909596,
        "33": 0.4117716540600132,
        "34": 0.46787482681766157,
        "35": 0.5760949626677625,
        "36": 0.5024075898674634,
        "37": 0.37192061501097284,
        "38": 0.3782547048208301,
        "39": 0.11247053610442681,
        "40": 0.4538651584833432,
        "41": 0.07931782790601685,
        "42": -0.027921252773791386,
        "43": -0.004752299781972507,
        "44": 0.5083308664946927,
        "45": 0.6087337738713885,
        "46": 0.4564502649028567,
        "47": 0.4795239362713411,
        "48": 0.39314885750279094,
        "49": 0.38998767872269424,
        "50": 0.4574804106177489,
        "51": 0.2217873029260131,
        "52": 0.4656001789909386,
        "53": 0.36204125083499916,
        "54": 0.3265465935787001,
        "55": 0.31762863328573404,
        "56": 0.5235859411604735,
        "57": 0.5984338292873923,
        "58": 0.5307550253278176,
        "59": 0.49087553163055253,
        "60": 0.41201561628555494,
        "61": 0.4086798978447504,
        "62": 0.37557189339559377,
        "63": 0.5380034505944717,
        "64": 0.6214190696384924,
        "65": 0.5175736758192244,
        "66": 0.5367165259378512,
        "67": 0.5020991169232254,
        "68": 0.13890291922758957,
        "69": 0.1933209672508536,
        "70": 0.2682745209925556,
        "71": 0.30726539309063755,
        "72": 0.5075618281500635,
        "73": 0.6171089231981931,
        "74": 0.45662231142379966,
        "75": 0.543598834031264,
        "76": 0.43638123918851207,
        "77": 0.4939341763646559,
        "78": 0.4789859331830984,
        "79": 0.5810647773096996,
        "80": 0.39912024801125107,
        "81": 0.3320819155013537,
        "82": 0.49498291087446045,
        "83": 0.3814331970006817,
        "84": -0.03859084236943037,
        "85": 0.4978051205768935,
        "86": -0.032509577510386876,
        "87": 0.3578223160891945,
        "88": 0.2514987776203304,
        "89": 0.4484678774301944,
        "90": 0.11609818773140912,
        "91": 0.4188926338125526,
        "92": 0.27664010765522956,
        "93": 0.2826659174552316,
        "94": 0.2008926537268611,
        "95": 0.3898360302952411
    },
    "auc": {
        "0": 0.48113754321229235,
        "1": 0.6916109915299249,
        "2": 0.7145305118385376,
        "3": 0.48422553322338074,
        "4": 0.5488058964395867,
        "5": 0.5646586345381526,
        "6": 0.6971114154995854,
        "7": 0.7313541870498235,
        "8": 0.6124418261748759,
        "9": 0.6432247008911314,
        "10": 0.6605613061665493,
        "11": 0.6784375216835343,
        "12": 0.74615427029331,
        "13": 0.7305408864724484,
        "14": 0.7400265034743218,
        "15": 0.7891626314641713,
        "16": 0.7605937546093419,
        "17": 0.7866386180776606,
        "18": 0.711209562689429,
        "19": 0.7446359155164128,
        "20": 0.6941420554525135,
        "21": 0.66631771056261,
        "22": 0.7146757740048509,
        "23": 0.6785091786750368,
        "24": 0.722013809297515,
        "25": 0.6824737464940971,
        "26": 0.5172951667458697,
        "27": 0.47240190460216736,
        "28": 0.49884549800128597,
        "29": 0.5764198324620989,
        "30": 0.727367940439251,
        "31": 0.7201679106216048,
        "32": 0.7372253005957397,
        "33": 0.7040940991049037,
        "34": 0.7406001878413608,
        "35": 0.7761974267220444,
        "36": 0.7356674959699588,
        "37": 0.682076799075653,
        "38": 0.6968747379308418,
        "39": 0.5510860145920107,
        "40": 0.7249275524371267,
        "41": 0.5472721512500116,
        "42": 0.4835387955534435,
        "43": 0.49620197728268056,
        "44": 0.7573725680517294,
        "45": 0.7878043355172691,
        "46": 0.7212055897340737,
        "47": 0.7475145238876915,
        "48": 0.6825551671660247,
        "49": 0.6806338279355115,
        "50": 0.6970002853474105,
        "51": 0.6550791839064061,
        "52": 0.6985431143007247,
        "53": 0.6793020751761942,
        "54": 0.6503561055876609,
        "55": 0.6495166430419398,
        "56": 0.7475020568381194,
        "57": 0.7864339135434116,
        "58": 0.758449144057968,
        "59": 0.7594183980452603,
        "60": 0.7195819660436582,
        "61": 0.7062407856565368,
        "62": 0.6797795691254102,
        "63": 0.7454380082750749,
        "64": 0.7906163314634275,
        "65": 0.7575622945125636,
        "66": 0.7575646735277465,
        "67": 0.7413481165336798,
        "68": 0.6006057140449828,
        "69": 0.6066018308337382,
        "70": 0.6232067717058374,
        "71": 0.6254342902173806,
        "72": 0.7521797726613091,
        "73": 0.7905473400231241,
        "74": 0.7248900894985512,
        "75": 0.77029894704788,
        "76": 0.714738236372828,
        "77": 0.7477486296006265,
        "78": 0.7324824920948028,
        "79": 0.7797293647096142,
        "80": 0.7179691587007182,
        "81": 0.6589616921101441,
        "82": 0.7200563561135683,
        "83": 0.6862813287677747,
        "84": 0.47645803632162054,
        "85": 0.7295101519768168,
        "86": 0.47978922651161493,
        "87": 0.6985985706165729,
        "88": 0.5300990504943206,
        "89": 0.7089247943048295,
        "90": 0.5754405091363132,
        "91": 0.7185307354708859,
        "92": 0.6352560020023196,
        "93": 0.6318287645093821,
        "94": 0.617452271443157,
        "95": 0.6616092404072044
    }
}