{
    "classifiers": {
        "0": "Sequential",
        "1": "LogisticRegression",
        "2": "RidgeClassifierCV",
        "3": "Sequential",
        "4": "RidgeClassifierCV",
        "5": "LogisticRegression",
        "6": "RandomForestClassifier",
        "7": "SVC",
        "8": "RandomForestClassifier",
        "9": "SVC",
        "10": "LogisticRegression",
        "11": "RidgeClassifierCV",
        "12": "Sequential",
        "13": "RandomForestClassifier",
        "14": "SVC",
        "15": "Sequential",
        "16": "RidgeClassifierCV",
        "17": "LogisticRegression",
        "18": "RandomForestClassifier",
        "19": "SVC",
        "20": "Sequential",
        "21": "SVC",
        "22": "LogisticRegression",
        "23": "RandomForestClassifier",
        "24": "RidgeClassifierCV",
        "25": "RidgeClassifierCV",
        "26": "Sequential",
        "27": "LogisticRegression",
        "28": "SVC",
        "29": "RandomForestClassifier",
        "30": "SVC",
        "31": "RandomForestClassifier",
        "32": "RandomForestClassifier",
        "33": "LogisticRegression",
        "34": "RidgeClassifierCV",
        "35": "Sequential",
        "36": "SVC",
        "37": "RidgeClassifierCV",
        "38": "LogisticRegression",
        "39": "Sequential",
        "40": "RandomForestClassifier",
        "41": "LogisticRegression",
        "42": "RidgeClassifierCV",
        "43": "Sequential",
        "44": "SVC",
        "45": "SVC",
        "46": "LogisticRegression",
        "47": "RandomForestClassifier",
        "48": "RandomForestClassifier",
        "49": "Sequential",
        "50": "SVC",
        "51": "LogisticRegression",
        "52": "Sequential",
        "53": "RidgeClassifierCV",
        "54": "RidgeClassifierCV",
        "55": "Sequential",
        "56": "SVC",
        "57": "LogisticRegression",
        "58": "RandomForestClassifier",
        "59": "RidgeClassifierCV",
        "60": "RidgeClassifierCV",
        "61": "Sequential",
        "62": "LogisticRegression",
        "63": "SVC",
        "64": "RandomForestClassifier",
        "65": "SVC",
        "66": "RandomForestClassifier",
        "67": "RidgeClassifierCV",
        "68": "Sequential",
        "69": "LogisticRegression",
        "70": "RandomForestClassifier",
        "71": "SVC",
        "72": "LogisticRegression",
        "73": "Sequential",
        "74": "RidgeClassifierCV",
        "75": "RandomForestClassifier",
        "76": "Sequential",
        "77": "LogisticRegression",
        "78": "RidgeClassifierCV",
        "79": "SVC",
        "80": "SVC",
        "81": "Sequential",
        "82": "RandomForestClassifier",
        "83": "RidgeClassifierCV",
        "84": "LogisticRegression",
        "85": "RandomForestClassifier",
        "86": "Sequential",
        "87": "RidgeClassifierCV",
        "88": "LogisticRegression",
        "89": "SVC",
        "90": "RidgeClassifierCV",
        "91": "RandomForestClassifier",
        "92": "SVC",
        "93": "LogisticRegression",
        "94": "Sequential",
        "95": "LogisticRegression",
        "96": "RidgeClassifierCV",
        "97": "Sequential",
        "98": "RandomForestClassifier",
        "99": "SVC",
        "100": "RandomForestClassifier",
        "101": "LogisticRegression",
        "102": "SVC",
        "103": "Sequential",
        "104": "RidgeClassifierCV",
        "105": "LogisticRegression",
        "106": "SVC",
        "107": "RidgeClassifierCV",
        "108": "Sequential",
        "109": "RandomForestClassifier",
        "110": "RandomForestClassifier",
        "111": "RidgeClassifierCV",
        "112": "LogisticRegression",
        "113": "SVC",
        "114": "Sequential",
        "115": "Sequential",
        "116": "RidgeClassifierCV",
        "117": "LogisticRegression",
        "118": "RandomForestClassifier",
        "119": "SVC"
    },
    "dataset": {
        "0": "dna_100_1",
        "1": "dna_100_1",
        "2": "dna_100_1",
        "3": "dna_100_1",
        "4": "dna_100_1",
        "5": "dna_100_1",
        "6": "dna_100_1",
        "7": "dna_100_1",
        "8": "dna_100_1",
        "9": "dna_100_1",
        "10": "dna_100_03",
        "11": "dna_100_03",
        "12": "dna_100_03",
        "13": "dna_100_03",
        "14": "dna_100_03",
        "15": "dna_100_13",
        "16": "dna_100_13",
        "17": "dna_100_13",
        "18": "dna_100_13",
        "19": "dna_100_13",
        "20": "protein_150_1",
        "21": "protein_150_1",
        "22": "protein_150_1",
        "23": "protein_150_1",
        "24": "protein_150_1",
        "25": "protein_150_0",
        "26": "protein_150_0",
        "27": "protein_150_0",
        "28": "protein_150_0",
        "29": "protein_150_0",
        "30": "dna_200_1",
        "31": "dna_200_1",
        "32": "dna_200_1",
        "33": "dna_200_1",
        "34": "dna_200_1",
        "35": "dna_200_1",
        "36": "dna_200_1",
        "37": "dna_200_1",
        "38": "dna_200_1",
        "39": "dna_200_1",
        "40": "dna_200_13",
        "41": "dna_200_13",
        "42": "dna_200_13",
        "43": "dna_200_13",
        "44": "dna_200_13",
        "45": "dna_50_1",
        "46": "dna_50_1",
        "47": "dna_50_1",
        "48": "dna_50_1",
        "49": "dna_50_1",
        "50": "dna_50_1",
        "51": "dna_50_1",
        "52": "dna_50_1",
        "53": "dna_50_1",
        "54": "dna_50_1",
        "55": "protein_200_1",
        "56": "protein_200_1",
        "57": "protein_200_1",
        "58": "protein_200_1",
        "59": "protein_200_1",
        "60": "protein_200_0",
        "61": "protein_200_0",
        "62": "protein_200_0",
        "63": "protein_200_0",
        "64": "protein_200_0",
        "65": "dna_50_03",
        "66": "dna_50_03",
        "67": "dna_50_03",
        "68": "dna_50_03",
        "69": "dna_50_03",
        "70": "dna_50_13",
        "71": "dna_50_13",
        "72": "dna_50_13",
        "73": "dna_50_13",
        "74": "dna_50_13",
        "75": "protein_50_0",
        "76": "protein_50_0",
        "77": "protein_50_0",
        "78": "protein_50_0",
        "79": "protein_50_0",
        "80": "protein_50_1",
        "81": "protein_50_1",
        "82": "protein_50_1",
        "83": "protein_50_1",
        "84": "protein_50_1",
        "85": "dna_200_03",
        "86": "dna_200_03",
        "87": "dna_200_03",
        "88": "dna_200_03",
        "89": "dna_200_03",
        "90": "protein_100_1",
        "91": "protein_100_1",
        "92": "protein_100_1",
        "93": "protein_100_1",
        "94": "protein_100_1",
        "95": "dna_150_13",
        "96": "dna_150_13",
        "97": "dna_150_13",
        "98": "dna_150_13",
        "99": "dna_150_13",
        "100": "protein_100_0",
        "101": "protein_100_0",
        "102": "protein_100_0",
        "103": "protein_100_0",
        "104": "protein_100_0",
        "105": "dna_150_1",
        "106": "dna_150_1",
        "107": "dna_150_1",
        "108": "dna_150_1",
        "109": "dna_150_1",
        "110": "dna_150_1",
        "111": "dna_150_1",
        "112": "dna_150_1",
        "113": "dna_150_1",
        "114": "dna_150_1",
        "115": "dna_150_03",
        "116": "dna_150_03",
        "117": "dna_150_03",
        "118": "dna_150_03",
        "119": "dna_150_03"
    },
    "fpr": {
        "0": [
            0.0,
            0.7028112449799196,
            1.0
        ],
        "1": [
            0.0,
            0.28112449799196787,
            1.0
        ],
        "2": [
            0.0,
            0.5927710843373494,
            1.0
        ],
        "3": [
            0.0,
            0.27228915662650605,
            1.0
        ],
        "4": [
            0.0,
            0.3855421686746988,
            1.0
        ],
        "5": [
            0.0,
            0.5373493975903615,
            1.0
        ],
        "6": [
            0.0,
            0.1678714859437751,
            1.0
        ],
        "7": [
            0.0,
            0.5373493975903615,
            1.0
        ],
        "8": [
            0.0,
            0.3502008032128514,
            1.0
        ],
        "9": [
            0.0,
            0.22329317269076304,
            1.0
        ],
        "10": [
            0.0,
            0.37104430379746833,
            1.0
        ],
        "11": [
            0.0,
            0.40348101265822783,
            1.0
        ],
        "12": [
            0.0,
            0.3900316455696203,
            1.0
        ],
        "13": [
            0.0,
            0.37658227848101267,
            1.0
        ],
        "14": [
            0.0,
            0.25158227848101267,
            1.0
        ],
        "15": [
            0.0,
            0.24841772151898733,
            1.0
        ],
        "16": [
            0.0,
            0.23813291139240506,
            1.0
        ],
        "17": [
            0.0,
            0.24604430379746836,
            1.0
        ],
        "18": [
            0.0,
            0.23417721518987342,
            1.0
        ],
        "19": [
            0.0,
            0.1906645569620253,
            1.0
        ],
        "20": [
            0.0,
            0.25236593059936907,
            1.0
        ],
        "21": [
            0.0,
            0.1695583596214511,
            1.0
        ],
        "22": [
            0.0,
            0.27365930599369087,
            1.0
        ],
        "23": [
            0.0,
            0.24132492113564669,
            1.0
        ],
        "24": [
            0.0,
            0.25,
            1.0
        ],
        "25": [
            0.0,
            0.32325581395348835,
            1.0
        ],
        "26": [
            0.0,
            0.2689922480620155,
            1.0
        ],
        "27": [
            0.0,
            0.30310077519379847,
            1.0
        ],
        "28": [
            0.0,
            0.22325581395348837,
            1.0
        ],
        "29": [
            0.0,
            0.3891472868217054,
            1.0
        ],
        "30": [
            0.0,
            0.22650602409638554,
            1.0
        ],
        "31": [
            0.0,
            0.40160642570281124,
            1.0
        ],
        "32": [
            0.0,
            0.04497991967871486,
            1.0
        ],
        "33": [
            0.0,
            0.5285140562248996,
            1.0
        ],
        "34": [
            0.0,
            0.661847389558233,
            1.0
        ],
        "35": [
            0.0,
            0.563855421686747,
            1.0
        ],
        "36": [
            0.0,
            0.6120481927710844,
            1.0
        ],
        "37": [
            0.0,
            0.25622489959839356,
            1.0
        ],
        "38": [
            0.0,
            0.22971887550200804,
            1.0
        ],
        "39": [
            0.0,
            0.3132530120481928,
            1.0
        ],
        "40": [
            0.0,
            0.25158227848101267,
            1.0
        ],
        "41": [
            0.0,
            0.2879746835443038,
            1.0
        ],
        "42": [
            0.0,
            0.27294303797468356,
            1.0
        ],
        "43": [
            0.0,
            0.26424050632911394,
            1.0
        ],
        "44": [
            0.0,
            0.19936708860759494,
            1.0
        ],
        "45": [
            0.0,
            0.22008032128514057,
            1.0
        ],
        "46": [
            0.0,
            0.29477911646586347,
            1.0
        ],
        "47": [
            0.0,
            0.3060240963855422,
            1.0
        ],
        "48": [
            0.0,
            0.38393574297188754,
            1.0
        ],
        "49": [
            0.0,
            0.25140562248995985,
            1.0
        ],
        "50": [
            0.0,
            0.5365461847389559,
            1.0
        ],
        "51": [
            0.0,
            0.5951807228915663,
            1.0
        ],
        "52": [
            0.0,
            0.5919678714859438,
            1.0
        ],
        "53": [
            0.0,
            0.8329317269076305,
            1.0
        ],
        "54": [
            0.0,
            0.26104417670682734,
            1.0
        ],
        "55": [
            0.0,
            0.22397476340694006,
            1.0
        ],
        "56": [
            0.0,
            0.16798107255520506,
            1.0
        ],
        "57": [
            0.0,
            0.2476340694006309,
            1.0
        ],
        "58": [
            0.0,
            0.25157728706624605,
            1.0
        ],
        "59": [
            0.0,
            0.25946372239747634,
            1.0
        ],
        "60": [
            0.0,
            0.29844961240310075,
            1.0
        ],
        "61": [
            0.0,
            0.3077519379844961,
            1.0
        ],
        "62": [
            0.0,
            0.27906976744186046,
            1.0
        ],
        "63": [
            0.0,
            0.2302325581395349,
            1.0
        ],
        "64": [
            0.0,
            0.5395348837209303,
            1.0
        ],
        "65": [
            0.0,
            0.22468354430379747,
            1.0
        ],
        "66": [
            0.0,
            0.3235759493670886,
            1.0
        ],
        "67": [
            0.0,
            0.2887658227848101,
            1.0
        ],
        "68": [
            0.0,
            0.36550632911392406,
            1.0
        ],
        "69": [
            0.0,
            0.3180379746835443,
            1.0
        ],
        "70": [
            0.0,
            0.22705696202531644,
            1.0
        ],
        "71": [
            0.0,
            0.18829113924050633,
            1.0
        ],
        "72": [
            0.0,
            0.22468354430379747,
            1.0
        ],
        "73": [
            0.0,
            0.2879746835443038,
            1.0
        ],
        "74": [
            0.0,
            0.21518987341772153,
            1.0
        ],
        "75": [
            0.0,
            0.3147286821705426,
            1.0
        ],
        "76": [
            0.0,
            0.34728682170542635,
            1.0
        ],
        "77": [
            0.0,
            0.29534883720930233,
            1.0
        ],
        "78": [
            0.0,
            0.2875968992248062,
            1.0
        ],
        "79": [
            0.0,
            0.2069767441860465,
            1.0
        ],
        "80": [
            0.0,
            0.16009463722397477,
            1.0
        ],
        "81": [
            0.0,
            0.22634069400630916,
            1.0
        ],
        "82": [
            0.0,
            0.20268138801261829,
            1.0
        ],
        "83": [
            0.0,
            0.1916403785488959,
            1.0
        ],
        "84": [
            0.0,
            0.22318611987381703,
            1.0
        ],
        "85": [
            0.0,
            0.6257911392405063,
            1.0
        ],
        "86": [
            0.0,
            0.37183544303797467,
            1.0
        ],
        "87": [
            0.0,
            0.34098101265822783,
            1.0
        ],
        "88": [
            0.0,
            0.33306962025316456,
            1.0
        ],
        "89": [
            0.0,
            0.2800632911392405,
            1.0
        ],
        "90": [
            0.0,
            0.22555205047318613,
            1.0
        ],
        "91": [
            0.0,
            0.2279179810725552,
            1.0
        ],
        "92": [
            0.0,
            0.1632492113564669,
            1.0
        ],
        "93": [
            0.0,
            0.25157728706624605,
            1.0
        ],
        "94": [
            0.0,
            0.18454258675078863,
            1.0
        ],
        "95": [
            0.0,
            0.2737341772151899,
            1.0
        ],
        "96": [
            0.0,
            0.2579113924050633,
            1.0
        ],
        "97": [
            0.0,
            0.28164556962025317,
            1.0
        ],
        "98": [
            0.0,
            0.2389240506329114,
            1.0
        ],
        "99": [
            0.0,
            0.19778481012658228,
            1.0
        ],
        "100": [
            0.0,
            0.3271317829457364,
            1.0
        ],
        "101": [
            0.0,
            0.31627906976744186,
            1.0
        ],
        "102": [
            0.0,
            0.22093023255813954,
            1.0
        ],
        "103": [
            0.0,
            0.3325581395348837,
            1.0
        ],
        "104": [
            0.0,
            0.3457364341085271,
            1.0
        ],
        "105": [
            0.0,
            0.6224899598393574,
            1.0
        ],
        "106": [
            0.0,
            0.21847389558232932,
            1.0
        ],
        "107": [
            0.0,
            0.6931726907630522,
            1.0
        ],
        "108": [
            0.0,
            0.6602409638554216,
            1.0
        ],
        "109": [
            0.0,
            0.3373493975903614,
            1.0
        ],
        "110": [
            0.0,
            0.0819277108433735,
            1.0
        ],
        "111": [
            0.0,
            0.3188755020080321,
            1.0
        ],
        "112": [
            0.0,
            0.24417670682730924,
            1.0
        ],
        "113": [
            0.0,
            0.5606425702811245,
            1.0
        ],
        "114": [
            0.0,
            0.27951807228915665,
            1.0
        ],
        "115": [
            0.0,
            0.38686708860759494,
            1.0
        ],
        "116": [
            0.0,
            0.34889240506329117,
            1.0
        ],
        "117": [
            0.0,
            0.3314873417721519,
            1.0
        ],
        "118": [
            0.0,
            0.4572784810126582,
            1.0
        ],
        "119": [
            0.0,
            0.25,
            1.0
        ]
    },
    "tpr": {
        "0": [
            0.0,
            0.6906419180201083,
            1.0
        ],
        "1": [
            0.0,
            0.6643464810518175,
            1.0
        ],
        "2": [
            0.0,
            0.559938128383604,
            1.0
        ],
        "3": [
            0.0,
            0.6813611755607115,
            1.0
        ],
        "4": [
            0.0,
            0.5467904098994586,
            1.0
        ],
        "5": [
            0.0,
            0.505800464037123,
            1.0
        ],
        "6": [
            0.0,
            0.2675947409126063,
            1.0
        ],
        "7": [
            0.0,
            0.6666666666666666,
            1.0
        ],
        "8": [
            0.0,
            0.740139211136891,
            1.0
        ],
        "9": [
            0.0,
            0.6860015467904099,
            1.0
        ],
        "10": [
            0.0,
            0.59592795614722,
            1.0
        ],
        "11": [
            0.0,
            0.548159749412686,
            1.0
        ],
        "12": [
            0.0,
            0.6820673453406422,
            1.0
        ],
        "13": [
            0.0,
            0.7079091620986687,
            1.0
        ],
        "14": [
            0.0,
            0.6084573218480814,
            1.0
        ],
        "15": [
            0.0,
            0.7666405638214565,
            1.0
        ],
        "16": [
            0.0,
            0.6711041503523885,
            1.0
        ],
        "17": [
            0.0,
            0.7071260767423649,
            1.0
        ],
        "18": [
            0.0,
            0.7047768206734534,
            1.0
        ],
        "19": [
            0.0,
            0.7689898198903681,
            1.0
        ],
        "20": [
            0.0,
            0.7933634992458521,
            1.0
        ],
        "21": [
            0.0,
            0.7428355957767723,
            1.0
        ],
        "22": [
            0.0,
            0.696078431372549,
            1.0
        ],
        "23": [
            0.0,
            0.7420814479638009,
            1.0
        ],
        "24": [
            0.0,
            0.6342383107088989,
            1.0
        ],
        "25": [
            0.0,
            0.571319018404908,
            1.0
        ],
        "26": [
            0.0,
            0.6265337423312883,
            1.0
        ],
        "27": [
            0.0,
            0.6357361963190185,
            1.0
        ],
        "28": [
            0.0,
            0.6526073619631901,
            1.0
        ],
        "29": [
            0.0,
            0.74079754601227,
            1.0
        ],
        "30": [
            0.0,
            0.6705336426914154,
            1.0
        ],
        "31": [
            0.0,
            0.7703016241299304,
            1.0
        ],
        "32": [
            0.0,
            0.0765661252900232,
            1.0
        ],
        "33": [
            0.0,
            0.4733178654292343,
            1.0
        ],
        "34": [
            0.0,
            0.6117556071152359,
            1.0
        ],
        "35": [
            0.0,
            0.5382830626450116,
            1.0
        ],
        "36": [
            0.0,
            0.7648878576952823,
            1.0
        ],
        "37": [
            0.0,
            0.6326372776488786,
            1.0
        ],
        "38": [
            0.0,
            0.6844547563805105,
            1.0
        ],
        "39": [
            0.0,
            0.748646558391338,
            1.0
        ],
        "40": [
            0.0,
            0.7126076742364917,
            1.0
        ],
        "41": [
            0.0,
            0.6961628817541112,
            1.0
        ],
        "42": [
            0.0,
            0.6624902114330462,
            1.0
        ],
        "43": [
            0.0,
            0.7462803445575568,
            1.0
        ],
        "44": [
            0.0,
            0.7517619420516837,
            1.0
        ],
        "45": [
            0.0,
            0.691415313225058,
            1.0
        ],
        "46": [
            0.0,
            0.6589327146171694,
            1.0
        ],
        "47": [
            0.0,
            0.708430007733952,
            1.0
        ],
        "48": [
            0.0,
            0.48259860788863107,
            1.0
        ],
        "49": [
            0.0,
            0.7061098221191029,
            1.0
        ],
        "50": [
            0.0,
            0.6310904872389791,
            1.0
        ],
        "51": [
            0.0,
            0.5622583139984532,
            1.0
        ],
        "52": [
            0.0,
            0.5522041763341067,
            1.0
        ],
        "53": [
            0.0,
            0.8607888631090487,
            1.0
        ],
        "54": [
            0.0,
            0.605568445475638,
            1.0
        ],
        "55": [
            0.0,
            0.7375565610859729,
            1.0
        ],
        "56": [
            0.0,
            0.7435897435897436,
            1.0
        ],
        "57": [
            0.0,
            0.6900452488687783,
            1.0
        ],
        "58": [
            0.0,
            0.7428355957767723,
            1.0
        ],
        "59": [
            0.0,
            0.6221719457013575,
            1.0
        ],
        "60": [
            0.0,
            0.5858895705521472,
            1.0
        ],
        "61": [
            0.0,
            0.6288343558282209,
            1.0
        ],
        "62": [
            0.0,
            0.6403374233128835,
            1.0
        ],
        "63": [
            0.0,
            0.6242331288343558,
            1.0
        ],
        "64": [
            0.0,
            0.848159509202454,
            1.0
        ],
        "65": [
            0.0,
            0.6217697729052467,
            1.0
        ],
        "66": [
            0.0,
            0.6726703210649961,
            1.0
        ],
        "67": [
            0.0,
            0.5677368833202819,
            1.0
        ],
        "68": [
            0.0,
            0.6883320281910729,
            1.0
        ],
        "69": [
            0.0,
            0.6170712607674237,
            1.0
        ],
        "70": [
            0.0,
            0.7094753328112764,
            1.0
        ],
        "71": [
            0.0,
            0.7611589663273297,
            1.0
        ],
        "72": [
            0.0,
            0.7415818324197337,
            1.0
        ],
        "73": [
            0.0,
            0.7768206734534064,
            1.0
        ],
        "74": [
            0.0,
            0.6906812842599843,
            1.0
        ],
        "75": [
            0.0,
            0.7507668711656442,
            1.0
        ],
        "76": [
            0.0,
            0.7484662576687117,
            1.0
        ],
        "77": [
            0.0,
            0.6549079754601227,
            1.0
        ],
        "78": [
            0.0,
            0.620398773006135,
            1.0
        ],
        "79": [
            0.0,
            0.6978527607361963,
            1.0
        ],
        "80": [
            0.0,
            0.7413273001508296,
            1.0
        ],
        "81": [
            0.0,
            0.7360482654600302,
            1.0
        ],
        "82": [
            0.0,
            0.7285067873303167,
            1.0
        ],
        "83": [
            0.0,
            0.6764705882352942,
            1.0
        ],
        "84": [
            0.0,
            0.7058823529411765,
            1.0
        ],
        "85": [
            0.0,
            0.8261550509005482,
            1.0
        ],
        "86": [
            0.0,
            0.6288175411119812,
            1.0
        ],
        "87": [
            0.0,
            0.5324980422866092,
            1.0
        ],
        "88": [
            0.0,
            0.5794831636648394,
            1.0
        ],
        "89": [
            0.0,
            0.5309318715740016,
            1.0
        ],
        "90": [
            0.0,
            0.6455505279034691,
            1.0
        ],
        "91": [
            0.0,
            0.7262443438914027,
            1.0
        ],
        "92": [
            0.0,
            0.744343891402715,
            1.0
        ],
        "93": [
            0.0,
            0.7013574660633484,
            1.0
        ],
        "94": [
            0.0,
            0.6840120663650076,
            1.0
        ],
        "95": [
            0.0,
            0.7032106499608457,
            1.0
        ],
        "96": [
            0.0,
            0.6656225528582616,
            1.0
        ],
        "97": [
            0.0,
            0.8018794048551292,
            1.0
        ],
        "98": [
            0.0,
            0.7157400156617071,
            1.0
        ],
        "99": [
            0.0,
            0.7572435395458105,
            1.0
        ],
        "100": [
            0.0,
            0.75920245398773,
            1.0
        ],
        "101": [
            0.0,
            0.63420245398773,
            1.0
        ],
        "102": [
            0.0,
            0.661042944785276,
            1.0
        ],
        "103": [
            0.0,
            0.7085889570552147,
            1.0
        ],
        "104": [
            0.0,
            0.5452453987730062,
            1.0
        ],
        "105": [
            0.0,
            0.5754060324825986,
            1.0
        ],
        "106": [
            0.0,
            0.6774941995359629,
            1.0
        ],
        "107": [
            0.0,
            0.6411446249033256,
            1.0
        ],
        "108": [
            0.0,
            0.6334106728538283,
            1.0
        ],
        "109": [
            0.0,
            0.7424593967517401,
            1.0
        ],
        "110": [
            0.0,
            0.14385150812064965,
            1.0
        ],
        "111": [
            0.0,
            0.588553750966744,
            1.0
        ],
        "112": [
            0.0,
            0.6620262954369683,
            1.0
        ],
        "113": [
            0.0,
            0.711523588553751,
            1.0
        ],
        "114": [
            0.0,
            0.7022428460943542,
            1.0
        ],
        "115": [
            0.0,
            0.6617071260767423,
            1.0
        ],
        "116": [
            0.0,
            0.5559906029757243,
            1.0
        ],
        "117": [
            0.0,
            0.5951448707909162,
            1.0
        ],
        "118": [
            0.0,
            0.6953797963978073,
            1.0
        ],
        "119": [
            0.0,
            0.5732184808144087,
            1.0
        ]
    },
    "se": {
        "0": 0.2971887550200803,
        "1": 0.7188755020080321,
        "2": 0.4072289156626506,
        "3": 0.727710843373494,
        "4": 0.6144578313253012,
        "5": 0.46265060240963857,
        "6": 0.8321285140562249,
        "7": 0.46265060240963857,
        "8": 0.6497991967871486,
        "9": 0.7767068273092369,
        "10": 0.6289556962025317,
        "11": 0.5965189873417721,
        "12": 0.6099683544303798,
        "13": 0.6234177215189873,
        "14": 0.7484177215189873,
        "15": 0.7515822784810127,
        "16": 0.7618670886075949,
        "17": 0.7539556962025317,
        "18": 0.7658227848101266,
        "19": 0.8093354430379747,
        "20": 0.7476340694006309,
        "21": 0.830441640378549,
        "22": 0.7263406940063092,
        "23": 0.7586750788643533,
        "24": 0.75,
        "25": 0.6767441860465117,
        "26": 0.7310077519379845,
        "27": 0.6968992248062016,
        "28": 0.7767441860465116,
        "29": 0.6108527131782946,
        "30": 0.7734939759036145,
        "31": 0.5983935742971888,
        "32": 0.9550200803212852,
        "33": 0.4714859437751004,
        "34": 0.3381526104417671,
        "35": 0.43614457831325304,
        "36": 0.38795180722891565,
        "37": 0.7437751004016064,
        "38": 0.770281124497992,
        "39": 0.6867469879518072,
        "40": 0.7484177215189873,
        "41": 0.7120253164556962,
        "42": 0.7270569620253164,
        "43": 0.7357594936708861,
        "44": 0.8006329113924051,
        "45": 0.7799196787148595,
        "46": 0.7052208835341366,
        "47": 0.6939759036144578,
        "48": 0.6160642570281124,
        "49": 0.7485943775100402,
        "50": 0.4634538152610442,
        "51": 0.40481927710843374,
        "52": 0.40803212851405624,
        "53": 0.1670682730923695,
        "54": 0.7389558232931727,
        "55": 0.7760252365930599,
        "56": 0.832018927444795,
        "57": 0.7523659305993691,
        "58": 0.748422712933754,
        "59": 0.7405362776025236,
        "60": 0.7015503875968992,
        "61": 0.6922480620155039,
        "62": 0.7209302325581395,
        "63": 0.7697674418604651,
        "64": 0.4604651162790698,
        "65": 0.7753164556962026,
        "66": 0.6764240506329114,
        "67": 0.7112341772151899,
        "68": 0.634493670886076,
        "69": 0.6819620253164557,
        "70": 0.7729430379746836,
        "71": 0.8117088607594937,
        "72": 0.7753164556962026,
        "73": 0.7120253164556962,
        "74": 0.7848101265822784,
        "75": 0.6852713178294574,
        "76": 0.6527131782945736,
        "77": 0.7046511627906977,
        "78": 0.7124031007751938,
        "79": 0.7930232558139535,
        "80": 0.8399053627760252,
        "81": 0.7736593059936908,
        "82": 0.7973186119873817,
        "83": 0.8083596214511041,
        "84": 0.776813880126183,
        "85": 0.37420886075949367,
        "86": 0.6281645569620253,
        "87": 0.6590189873417721,
        "88": 0.6669303797468354,
        "89": 0.7199367088607594,
        "90": 0.7744479495268138,
        "91": 0.7720820189274448,
        "92": 0.8367507886435331,
        "93": 0.748422712933754,
        "94": 0.8154574132492114,
        "95": 0.7262658227848101,
        "96": 0.7420886075949367,
        "97": 0.7183544303797469,
        "98": 0.7610759493670886,
        "99": 0.8022151898734177,
        "100": 0.6728682170542636,
        "101": 0.6837209302325581,
        "102": 0.7790697674418605,
        "103": 0.6674418604651163,
        "104": 0.6542635658914728,
        "105": 0.37751004016064255,
        "106": 0.7815261044176707,
        "107": 0.3068273092369478,
        "108": 0.3397590361445783,
        "109": 0.6626506024096386,
        "110": 0.9180722891566265,
        "111": 0.6811244979919678,
        "112": 0.7558232931726908,
        "113": 0.4393574297188755,
        "114": 0.7204819277108434,
        "115": 0.6131329113924051,
        "116": 0.6511075949367089,
        "117": 0.6685126582278481,
        "118": 0.5427215189873418,
        "119": 0.75
    },
    "sp": {
        "0": 0.6906419180201083,
        "1": 0.6643464810518175,
        "2": 0.559938128383604,
        "3": 0.6813611755607115,
        "4": 0.5467904098994586,
        "5": 0.505800464037123,
        "6": 0.2675947409126063,
        "7": 0.6666666666666666,
        "8": 0.740139211136891,
        "9": 0.6860015467904099,
        "10": 0.59592795614722,
        "11": 0.548159749412686,
        "12": 0.6820673453406422,
        "13": 0.7079091620986687,
        "14": 0.6084573218480814,
        "15": 0.7666405638214565,
        "16": 0.6711041503523885,
        "17": 0.7071260767423649,
        "18": 0.7047768206734534,
        "19": 0.7689898198903681,
        "20": 0.7933634992458521,
        "21": 0.7428355957767723,
        "22": 0.696078431372549,
        "23": 0.7420814479638009,
        "24": 0.6342383107088989,
        "25": 0.571319018404908,
        "26": 0.6265337423312883,
        "27": 0.6357361963190185,
        "28": 0.6526073619631901,
        "29": 0.74079754601227,
        "30": 0.6705336426914154,
        "31": 0.7703016241299304,
        "32": 0.0765661252900232,
        "33": 0.4733178654292343,
        "34": 0.6117556071152359,
        "35": 0.5382830626450116,
        "36": 0.7648878576952823,
        "37": 0.6326372776488786,
        "38": 0.6844547563805105,
        "39": 0.748646558391338,
        "40": 0.7126076742364917,
        "41": 0.6961628817541112,
        "42": 0.6624902114330462,
        "43": 0.7462803445575568,
        "44": 0.7517619420516837,
        "45": 0.691415313225058,
        "46": 0.6589327146171694,
        "47": 0.708430007733952,
        "48": 0.48259860788863107,
        "49": 0.7061098221191029,
        "50": 0.6310904872389791,
        "51": 0.5622583139984532,
        "52": 0.5522041763341067,
        "53": 0.8607888631090487,
        "54": 0.605568445475638,
        "55": 0.7375565610859729,
        "56": 0.7435897435897436,
        "57": 0.6900452488687783,
        "58": 0.7428355957767723,
        "59": 0.6221719457013575,
        "60": 0.5858895705521472,
        "61": 0.6288343558282209,
        "62": 0.6403374233128835,
        "63": 0.6242331288343558,
        "64": 0.848159509202454,
        "65": 0.6217697729052467,
        "66": 0.6726703210649961,
        "67": 0.5677368833202819,
        "68": 0.6883320281910729,
        "69": 0.6170712607674237,
        "70": 0.7094753328112764,
        "71": 0.7611589663273297,
        "72": 0.7415818324197337,
        "73": 0.7768206734534064,
        "74": 0.6906812842599843,
        "75": 0.7507668711656442,
        "76": 0.7484662576687117,
        "77": 0.6549079754601227,
        "78": 0.620398773006135,
        "79": 0.6978527607361963,
        "80": 0.7413273001508296,
        "81": 0.7360482654600302,
        "82": 0.7285067873303167,
        "83": 0.6764705882352942,
        "84": 0.7058823529411765,
        "85": 0.8261550509005482,
        "86": 0.6288175411119812,
        "87": 0.5324980422866092,
        "88": 0.5794831636648394,
        "89": 0.5309318715740016,
        "90": 0.6455505279034691,
        "91": 0.7262443438914027,
        "92": 0.744343891402715,
        "93": 0.7013574660633484,
        "94": 0.6840120663650076,
        "95": 0.7032106499608457,
        "96": 0.6656225528582616,
        "97": 0.8018794048551292,
        "98": 0.7157400156617071,
        "99": 0.7572435395458105,
        "100": 0.75920245398773,
        "101": 0.63420245398773,
        "102": 0.661042944785276,
        "103": 0.7085889570552147,
        "104": 0.5452453987730062,
        "105": 0.5754060324825986,
        "106": 0.6774941995359629,
        "107": 0.6411446249033256,
        "108": 0.6334106728538283,
        "109": 0.7424593967517401,
        "110": 0.14385150812064965,
        "111": 0.588553750966744,
        "112": 0.6620262954369683,
        "113": 0.711523588553751,
        "114": 0.7022428460943542,
        "115": 0.6617071260767423,
        "116": 0.5559906029757243,
        "117": 0.5951448707909162,
        "118": 0.6953797963978073,
        "119": 0.5732184808144087
    },
    "acc": {
        "0": 0.49763593380614657,
        "1": 0.6910953506698188,
        "2": 0.4850275807722616,
        "3": 0.7040977147360126,
        "4": 0.5799842395587076,
        "5": 0.4846335697399527,
        "6": 0.5445232466509062,
        "7": 0.5665878644602049,
        "8": 0.6958234830575256,
        "9": 0.7304964539007093,
        "10": 0.6123573396300669,
        "11": 0.572215663124754,
        "12": 0.6462022825659189,
        "13": 0.6658795749704841,
        "14": 0.6780794962613145,
        "15": 0.7591499409681228,
        "16": 0.7162534435261708,
        "17": 0.7304210940574577,
        "18": 0.7351436442345534,
        "19": 0.7890594254230617,
        "20": 0.7710100231303006,
        "21": 0.7856592135697764,
        "22": 0.7108712413261372,
        "23": 0.7501927525057825,
        "24": 0.6908249807247494,
        "25": 0.6237471087124132,
        "26": 0.6784888203546646,
        "27": 0.6661526599845798,
        "28": 0.7143407864302236,
        "29": 0.6761757902852737,
        "30": 0.7210401891252955,
        "31": 0.685973207249803,
        "32": 0.5074862096138691,
        "33": 0.4724192277383767,
        "34": 0.47754137115839246,
        "35": 0.48817966903073284,
        "36": 0.5799842395587076,
        "37": 0.6871552403467297,
        "38": 0.7265563435776202,
        "39": 0.7182821118991332,
        "40": 0.7304210940574577,
        "41": 0.7040535222353405,
        "42": 0.6946084218811491,
        "43": 0.7410468319559229,
        "44": 0.7760724124360489,
        "45": 0.7348305752561072,
        "46": 0.681639085894405,
        "47": 0.7013396375098503,
        "48": 0.5480693459416863,
        "49": 0.7269503546099291,
        "50": 0.5488573680063041,
        "51": 0.4850275807722616,
        "52": 0.48148148148148145,
        "53": 0.5204885736800631,
        "54": 0.6710007880220646,
        "55": 0.756360832690825,
        "56": 0.7868157286044719,
        "57": 0.720508866615266,
        "58": 0.7455666923670008,
        "59": 0.6800308404009252,
        "60": 0.643407864302236,
        "61": 0.6603700848111026,
        "62": 0.6804163454124904,
        "63": 0.6966075558982266,
        "64": 0.6553585196607556,
        "65": 0.6981503345139709,
        "66": 0.6745375836284927,
        "67": 0.6391184573002755,
        "68": 0.6615505706414797,
        "69": 0.6493506493506493,
        "70": 0.7410468319559229,
        "71": 0.7863046044864227,
        "72": 0.7583628492719402,
        "73": 0.7445887445887446,
        "74": 0.7375049193231011,
        "75": 0.718195836545875,
        "76": 0.7008481110254433,
        "77": 0.6796453353893601,
        "78": 0.6661526599845798,
        "79": 0.7451811873554356,
        "80": 0.7895142636854279,
        "81": 0.7544333076329992,
        "82": 0.7621434078643022,
        "83": 0.7409406322282189,
        "84": 0.7405551272166538,
        "85": 0.6013380558835104,
        "86": 0.6284927194018103,
        "87": 0.5954348681621409,
        "88": 0.6229830775285321,
        "89": 0.6249508067689886,
        "90": 0.7085582112567463,
        "91": 0.748650732459522,
        "92": 0.7895142636854279,
        "93": 0.7243639167309175,
        "94": 0.7482652274479569,
        "95": 0.7146792601338056,
        "96": 0.7036599763872491,
        "97": 0.7603305785123967,
        "98": 0.7382920110192838,
        "99": 0.7796143250688705,
        "100": 0.7162683114880494,
        "101": 0.6588280647648419,
        "102": 0.7197378565921357,
        "103": 0.6881264456437933,
        "104": 0.5994602929838088,
        "105": 0.47832939322301027,
        "106": 0.7285263987391647,
        "107": 0.47714736012608355,
        "108": 0.48936170212765956,
        "109": 0.7033096926713948,
        "110": 0.5236406619385343,
        "111": 0.6339637509850276,
        "112": 0.7080378250591016,
        "113": 0.5780141843971631,
        "114": 0.7111899133175729,
        "115": 0.6375442739079102,
        "116": 0.6033057851239669,
        "117": 0.6316410861865407,
        "118": 0.6194411648957103,
        "119": 0.6611570247933884
    },
    "mcc": {
        "0": -0.008569463837649999,
        "1": 0.3946330594785052,
        "2": -0.027959664953770856,
        "3": 0.4174546422730212,
        "4": 0.16912726227870767,
        "5": -0.029688905724702876,
        "6": 0.22370351790305387,
        "7": 0.10516002612671456,
        "8": 0.34850920162629523,
        "9": 0.49448233970305605,
        "10": 0.23109994843096435,
        "11": 0.15113547376664058,
        "12": 0.2706254578523253,
        "13": 0.30347621803820096,
        "14": 0.41195438795979444,
        "15": 0.5065999015238368,
        "16": 0.47260418484060357,
        "17": 0.48007196128694335,
        "18": 0.497356104792011,
        "19": 0.5977131090281482,
        "20": 0.49998900659164763,
        "21": 0.6057629462041226,
        "22": 0.4217538984097576,
        "23": 0.4922164930372865,
        "24": 0.4207376321061173,
        "25": 0.2753885832550183,
        "26": 0.39624443952522503,
        "27": 0.3517210600422408,
        "28": 0.48627172689421894,
        "29": 0.3090114675448421,
        "30": 0.48112653189800875,
        "31": 0.3068352420065263,
        "32": 0.25370855474889603,
        "33": -0.05410965160677421,
        "34": -0.03861564652726398,
        "35": -0.02277366738695319,
        "36": 0.108672405956954,
        "37": 0.4121665881027738,
        "38": 0.4834723925651029,
        "39": 0.3991641864486125,
        "40": 0.4745407982369101,
        "41": 0.4117716540600132,
        "42": 0.41342370046294746,
        "43": 0.4734252956649198,
        "44": 0.5760949626677625,
        "45": 0.5024075898674634,
        "46": 0.37192061501097284,
        "47": 0.3862724438155515,
        "48": 0.11146575936601244,
        "49": 0.4617510020703777,
        "50": 0.07931782790601685,
        "51": -0.027921252773791386,
        "52": -0.034118401422492846,
        "53": 0.01613122538175147,
        "54": 0.38712338864365464,
        "55": 0.516023549490502,
        "56": 0.6087337738713885,
        "57": 0.4564502649028567,
        "58": 0.4776959627645301,
        "59": 0.39853901832696814,
        "60": 0.3227132689401827,
        "61": 0.3403420862928553,
        "62": 0.38998767872269424,
        "63": 0.4574804106177489,
        "64": 0.22093549770874896,
        "65": 0.4656001789909386,
        "66": 0.34799312762315066,
        "67": 0.32350405552003336,
        "68": 0.3042891003978494,
        "69": 0.31762863328573404,
        "70": 0.5111289360213356,
        "71": 0.5984338292873923,
        "72": 0.5307550253278176,
        "73": 0.45567944782087444,
        "74": 0.520815548790832,
        "75": 0.40612943234922816,
        "76": 0.36342800027572897,
        "77": 0.37557189339559377,
        "78": 0.3638257772694187,
        "79": 0.5380034505944717,
        "80": 0.6214190696384924,
        "81": 0.5117254161546463,
        "82": 0.5451730223506472,
        "83": 0.5392672858617131,
        "84": 0.5020991169232254,
        "85": 0.13719392434360395,
        "86": 0.2551652568464605,
        "87": 0.21789156206145283,
        "88": 0.2682745209925556,
        "89": 0.30726539309063755,
        "90": 0.4663380642570918,
        "91": 0.5046947508420916,
        "92": 0.6171089231981931,
        "93": 0.45662231142379966,
        "94": 0.5550633656010776,
        "95": 0.43638123918851207,
        "96": 0.438220158854458,
        "97": 0.47650403459194446,
        "98": 0.49563764785887976,
        "99": 0.5810647773096996,
        "100": 0.3947387858669772,
        "101": 0.3320819155013537,
        "102": 0.49498291087446045,
        "103": 0.3585216220260362,
        "104": 0.2224430115965237,
        "105": -0.03859084236943037,
        "106": 0.4978051205768935,
        "107": -0.0382830626450116,
        "108": -0.020355705238868836,
        "109": 0.36547967315646124,
        "110": 0.26769141531322505,
        "111": 0.2899390500462835,
        "112": 0.4484678774301944,
        "113": 0.11609818773140912,
        "114": 0.4190225663912986,
        "115": 0.260418146447528,
        "116": 0.22743016695162083,
        "117": 0.2826659174552316,
        "118": 0.2052933578764178,
        "119": 0.3898360302952411
    },
    "auc": {
        "0": 0.49391533652009434,
        "1": 0.6916109915299249,
        "2": 0.48358352202312727,
        "3": 0.7045360094671028,
        "4": 0.5806241206123799,
        "5": 0.48422553322338074,
        "6": 0.5498616274844156,
        "7": 0.5646586345381526,
        "8": 0.6949692039620198,
        "9": 0.7313541870498235,
        "10": 0.6124418261748759,
        "11": 0.5723393683772291,
        "12": 0.646017849885511,
        "13": 0.665663441808828,
        "14": 0.6784375216835343,
        "15": 0.7591114211512345,
        "16": 0.7164856194799917,
        "17": 0.7305408864724484,
        "18": 0.7352998027417901,
        "19": 0.7891626314641713,
        "20": 0.7704987843232415,
        "21": 0.7866386180776606,
        "22": 0.711209562689429,
        "23": 0.7503782634140771,
        "24": 0.6921191553544495,
        "25": 0.6240316022257097,
        "26": 0.6787707471346364,
        "27": 0.66631771056261,
        "28": 0.7146757740048509,
        "29": 0.6758251295952823,
        "30": 0.722013809297515,
        "31": 0.6843475992135596,
        "32": 0.5157931028056542,
        "33": 0.47240190460216736,
        "34": 0.47495410877850147,
        "35": 0.4872138204791323,
        "36": 0.5764198324620989,
        "37": 0.6882061890252424,
        "38": 0.727367940439251,
        "39": 0.7176967731715725,
        "40": 0.7305126978777395,
        "41": 0.7040940991049037,
        "42": 0.6947735867291813,
        "43": 0.7410199191142213,
        "44": 0.7761974267220444,
        "45": 0.7356674959699588,
        "46": 0.682076799075653,
        "47": 0.701202955674205,
        "48": 0.5493314324583718,
        "49": 0.7273520998145715,
        "50": 0.5472721512500116,
        "51": 0.4835387955534435,
        "52": 0.4801181524240814,
        "53": 0.5139285681007091,
        "54": 0.6722621343844054,
        "55": 0.7567908988395164,
        "56": 0.7878043355172691,
        "57": 0.7212055897340737,
        "58": 0.7456291543552631,
        "59": 0.6813541116519406,
        "60": 0.6437199790745232,
        "61": 0.6605412089218623,
        "62": 0.6806338279355115,
        "63": 0.6970002853474105,
        "64": 0.6543123127407618,
        "65": 0.6985431143007247,
        "66": 0.6745471858489537,
        "67": 0.6394855302677359,
        "68": 0.6614128495385745,
        "69": 0.6495166430419398,
        "70": 0.74120918539298,
        "71": 0.7864339135434116,
        "72": 0.758449144057968,
        "73": 0.7444229949545513,
        "74": 0.7377457054211314,
        "75": 0.7180190944975507,
        "76": 0.7005897179816427,
        "77": 0.6797795691254102,
        "78": 0.6664009368906645,
        "79": 0.7454380082750749,
        "80": 0.7906163314634275,
        "81": 0.7548537857268606,
        "82": 0.7629126996588493,
        "83": 0.7424151048431991,
        "84": 0.7413481165336798,
        "85": 0.600181955830021,
        "86": 0.6284910490370033,
        "87": 0.5957585148141907,
        "88": 0.6232067717058374,
        "89": 0.6254342902173806,
        "90": 0.7099992387151415,
        "91": 0.7491631814094237,
        "92": 0.7905473400231241,
        "93": 0.7248900894985512,
        "94": 0.7497347398071095,
        "95": 0.714738236372828,
        "96": 0.7038555802265991,
        "97": 0.760116917617438,
        "98": 0.7384079825143979,
        "99": 0.7797293647096142,
        "100": 0.7160353355209969,
        "101": 0.6589616921101441,
        "102": 0.7200563561135683,
        "103": 0.6880154087601655,
        "104": 0.5997544823322395,
        "105": 0.47645803632162054,
        "106": 0.7295101519768168,
        "107": 0.4739859670701367,
        "108": 0.48658485449920336,
        "109": 0.7025549995806893,
        "110": 0.5309618986386381,
        "111": 0.634839124479356,
        "112": 0.7089247943048295,
        "113": 0.5754405091363132,
        "114": 0.7113623869025989,
        "115": 0.6374200187345737,
        "116": 0.6035490989562167,
        "117": 0.6318287645093821,
        "118": 0.6190506576925745,
        "119": 0.6616092404072044
    }
}